…
dt_recovered_long <- dt_recovered %>% pivot_longer(cols = starts_with("X"), names_to = "day", values_to = "recovered")

covid_raw <- dt_confirmed_long %>% 
    inner_join(dt_deaths_long %>% select(-Lat,-Long), by = c("Province.State", "Country.Region", "day")) %>% 
    inner_join(dt_recovered_long %>% select(-Lat,-Long), by = c("Province.State", "Country.Region", "day"))

covid <- covid_raw %>% mutate(day = mdy(paste0(gsub("X","", day),"20")))

colnames(covid) <- tolower(colnames(covid))
colnames(covid)[1:2] <- c("region","country")
covid
```

    ## # A tibble: 4,641 x 8
    ##    region country          lat  long day        confirmed deaths recovered
    ##    <chr>  <chr>          <dbl> <dbl> <date>         <int>  <int>     <int>
    ##  1 Anhui  Mainland China  31.8  117. 2020-01-22         1      0         0
    ##  2 Anhui  Mainland China  31.8  117. 2020-01-23         9      0         0
    ##  3 Anhui  Mainland China  31.8  117. 2020-01-24        15      0         0
    ##  4 Anhui  Mainland China  31.8  117. 2020-01-25        39      0         0
    ##  5 Anhui  Mainland China  31.8  117. 2020-01-26        60      0         0
    ##  6 Anhui  Mainland China  31.8  117. 2020-01-27        70      0         0
    ##  7 Anhui  Mainland China  31.8  117. 2020-01-28       106      0         0
    ##  8 Anhui  Mainland China  31.8  117. 2020-01-29       152      0         2
    ##  9 Anhui  Mainland China  31.8  117. 2020-01-30       200      0         2
    ## 10 Anhui  Mainland China  31.8  117. 2020-01-31       237      0         3
    ## # … with 4,631 more rows

Aggregate by
country

``` r
covid_country <- covid %>% select(-lat, -long, -region) %>% group_by(country, day) %>% summarise_all(sum) %>% ungroup %>% arrange(country,day)
covid_country
```

    ## # A tibble: 2,457 x 5
    ##    country     day        confirmed deaths recovered
    ##    <chr>       <date>         <int>  <int>     <int>
    ##  1 Afghanistan 2020-01-22         0      0         0
    ##  2 Afghanistan 2020-01-23         0      0         0
    ##  3 Afghanistan 2020-01-24         0      0         0
    ##  4 Afghanistan 2020-01-25         0      0         0
    ##  5 Afghanistan 2020-01-26         0      0         0
    ##  6 Afghanistan 2020-01-27         0      0         0
    ##  7 Afghanistan 2020-01-28         0      0         0
    ##  8 Afghanistan 2020-01-29         0      0         0
    ##  9 Afghanistan 2020-01-30         0      0         0
    ## 10 Afghanistan 2020-01-31         0      0         0
    ## # … with 2,447 more rows

Calculate absolute growths and percentage growths

``` r
growth <- function(x) c(NA, diff(x)/x[-length(x)])
agrowth <- function(x)c(NA, diff(x))

covid_country <- covid_country %>% group_by(country) %>% mutate_at(c("confirmed", "deaths", "recovered"), list(diff = agrowth, growth = growth))
covid_country
```

    ## # A tibble: 2,457 x 11
    ## # Groups:   country [63]
    ##    country day        confirmed deaths recovered confirmed_diff deaths_diff
    ##    <chr>   <date>         <int>  <int>     <int>          <int>       <int>
    ##  1 Afghan… 2020-01-22         0      0         0             NA          NA
    ##  2 Afghan… 2020-01-23         0      0         0              0           0
    ##  3 Afghan… 2020-01-24         0      0         0              0           0
    ##  4 Afghan… 2020-01-25         0      0         0              0           0
    ##  5 Afghan… 2020-01-26         0      0         0              0           0
    ##  6 Afghan… 2020-01-27         0      0         0              0           0
    ##  7 Afghan… 2020-01-28         0      0         0              0           0
    ##  8 Afghan… 2020-01-29         0      0         0              0           0
    ##  9 Afghan… 2020-01-30         0      0         0              0           0
    ## 10 Afghan… 2020-01-31         0      0         0              0           0
    ## # … with 2,447 more rows, and 4 more variables: recovered_diff <int>,
    ## #   confirmed_growth <dbl>, deaths_growth <dbl>, recovered_growth <dbl>
…
Inspect death percentage
variation

``` r
pdeath <- covid_country %>% mutate(pdeath = deaths/confirmed) %>% filter(pdeath > 0) %>% 
    select(country, day, deaths, confirmed, pdeath) 
pdeath
```

    ## # A tibble: 180 x 5
    ## # Groups:   country [11]
    ##    country day        deaths confirmed pdeath
    ##    <chr>   <date>      <int>     <int>  <dbl>
    ##  1 France  2020-02-15      1        12 0.0833
    ##  2 France  2020-02-16      1        12 0.0833
    ##  3 France  2020-02-17      1        12 0.0833
    ##  4 France  2020-02-18      1        12 0.0833
    ##  5 France  2020-02-19      1        12 0.0833
    ##  6 France  2020-02-20      1        12 0.0833
    ##  7 France  2020-02-21      1        12 0.0833
    ##  8 France  2020-02-22      1        12 0.0833
    ##  9 France  2020-02-23      1        12 0.0833
    ## 10 France  2020-02-24      1        12 0.0833
    ## # … with 170 more rows

Select only unique
points

``` r
pdeath1 <- covid_country %>% select(country, confirmed, deaths) %>% unique %>% mutate(pdeath = deaths/confirmed) %>% filter(confirmed > 0) %>% filter(pdeath>0)
pdeath1
```

    ## # A tibble: 134 x 4
    ## # Groups:   country [11]
    ##    country   confirmed deaths pdeath
    ##    <chr>         <int>  <int>  <dbl>
    ##  1 France           12      1 0.0833
    ##  2 France           14      1 0.0714
    ##  3 France           18      2 0.111 
    ##  4 France           38      2 0.0526
    ##  5 France           57      2 0.0351
    ##  6 France          100      2 0.02  
    ##  7 Hong Kong        17      1 0.0588
    ##  8 Hong Kong        21      1 0.0476
    ##  9 Hong Kong        24      1 0.0417
    ## 10 Hong Kong        25      1 0.04  
    ## # … with 124 more rows
…
On which days it has occured?

``` r
pdeath %>% filter(pdeath>0.2)
```

    ## # A tibble: 31 x 5
    ## # Groups:   country [2]
    ##    country     day        deaths confirmed pdeath
    ##    <chr>       <date>      <int>     <int>  <dbl>
    ##  1 Iran        2020-02-19      2         2  1    
    ##  2 Iran        2020-02-20      2         5  0.4  
    ##  3 Iran        2020-02-21      4        18  0.222
    ##  4 Philippines 2020-02-02      1         2  0.5  
    ##  5 Philippines 2020-02-03      1         2  0.5  
    ##  6 Philippines 2020-02-04      1         2  0.5  
    ##  7 Philippines 2020-02-05      1         2  0.5  
    ##  8 Philippines 2020-02-06      1         2  0.5  
    ##  9 Philippines 2020-02-07      1         3  0.333
    ## 10 Philippines 2020-02-08      1         3  0.333
    ## # … with 21 more rows
…
