CDA course: Lecture 5
…
Inspect death percentage variation

pdeath <- covid_country %>% mutate(pdeath = deaths/confirmed) %>% filter(pdeath > 0) %>% 
    select(country, day, deaths, confirmed, pdeath) 
pdeath

# A tibble: 1,085 x 5
# Groups:   country [91]
   country     day        deaths confirmed pdeath
   <chr>       <date>      <int>     <int>  <dbl>
 1 Afghanistan 2020-03-22      1        40 0.025 
 2 Afghanistan 2020-03-23      1        40 0.025 
 3 Albania     2020-03-11      1        12 0.0833
 4 Albania     2020-03-12      1        23 0.0435
 5 Albania     2020-03-13      1        33 0.0303
 6 Albania     2020-03-14      1        38 0.0263
 7 Albania     2020-03-15      1        42 0.0238
 8 Albania     2020-03-16      1        51 0.0196
 9 Albania     2020-03-17      1        55 0.0182
10 Albania     2020-03-18      2        59 0.0339
#  with 1,075 more rows

Select only unique points

pdeath1 <- covid_country %>% select(country, confirmed, deaths) %>% unique %>% mutate(pdeath = deaths/confirmed) %>% filter(confirmed > 0) %>% filter(pdeath>0)
pdeath1

# A tibble: 870 x 4
# Groups:   country [89]
   country     confirmed deaths pdeath
   <chr>           <int>  <int>  <dbl>
 1 Afghanistan        40      1 0.025 
 2 Albania            12      1 0.0833
 3 Albania            23      1 0.0435
 4 Albania            33      1 0.0303
 5 Albania            38      1 0.0263
 6 Albania            42      1 0.0238
 7 Albania            51      1 0.0196
 8 Albania            55      1 0.0182
 9 Albania            59      2 0.0339
10 Albania            64      2 0.0312
#  with 860 more rows
…
Inspect outliers

pdeath1 %>% filter(pdeath>0.1)

# A tibble: 43 x 4
# Groups:   country [15]
   country   confirmed deaths pdeath
   <chr>         <int>  <int>  <dbl>
 1 Algeria          87      9  0.103
 2 Algeria          90     11  0.122
 3 Algeria         139     15  0.108
 4 Bulgaria          7      1  0.143
 5 Cuba              7      1  0.143
 6 France           18      2  0.111
 7 Gabon             3      1  0.333
 8 Gabon             4      1  0.25 
 9 Gabon             5      1  0.2  
10 Guatemala         2      1  0.5  
#  with 33 more rows

On which days it has occured?

pdeath %>% filter(pdeath>0.2)

# A tibble: 61 x 5
# Groups:   country [10]
   country   day        deaths confirmed  pdeath
   <chr>     <date>      <int>     <int>   <dbl>
 1 Gabon     2020-03-20      1         3   0.333
 2 Gabon     2020-03-21      1         4   0.25 
 3 Guam      2020-03-23      1         0 Inf    
 4 Guatemala 2020-03-16      1         2   0.5  
 5 Guyana    2020-03-12      1         1   1    
 6 Guyana    2020-03-13      1         1   1    
 7 Guyana    2020-03-14      1         1   1    
 8 Guyana    2020-03-15      1         4   0.25 
 9 Guyana    2020-03-16      1         4   0.25 
10 Iran      2020-02-19      2         2   1    
#  with 51 more rows
…
